{
	"name": "pinky",
	"creatureType": "demon",
	"groups": [
		"predator"
	],
	"entityClass": "com.lycanitesmobs.core.entity.creature.EntityPinky",
	"modelClass": "com.lycanitesmobs.client.model.creature.ModelPinky",
	"loadDefault": true,
	"enabled": true,
	"spawning": {
		"enabled": true,
		"spawners": ["creature", "animal", "portal", "nether"],
		"disableSubspecies": false,
		"dimensionIds": [-1],
		"dimensionListType": "whitelist",
		"ignoreBiome": true,
		"biomes": ["nether"],
		"spawnWeight": 6,
		"dungeonWeight": 200,
		"spawnAreaLimit": 5,
		"spawnGroupMin": 1,
		"spawnGroupMax": 3,
		"spawnsInLight": true,
		"spawnsInDark": true,
		"worldDayMin": -1,
		"despawnNatural": false,
		"despawnForced": false
	},
	"width": 0.9,
	"height": 1.9,
	"experience": 5,
	"health": 20,
	"defense": 1,
	"armor": 0,
	"speed": 28,
	"damage": 3,
	"attackSpeed": 2,
	"rangedSpeed": 1,
	"effectDuration": 5,
	"effectAmplifier": -1,
	"pierce": 1,
	"sight": 24,
	"knockbackResistance": 0.25,
	"eggBackColor": "#FF0099",
	"eggForeColor": "#990000",
	"subspecies": [
		{
			"index": 1,
			"name": "ashen",
			"type": "uncommon"
		},
		{
			"index": 2,
			"name": "scarlet",
			"type": "uncommon"
		}
	],
	"element": "nether",
	"peaceful": true,
	"farmable": true,
	"summonable": false,
	"tameable": true,
	"mountable": true,
	"summonCost": 4,
	"dungeonLevel": 2,
	"drops": [
		{
			"item": "lycanitesmobs:raw_pinky_meat",
			"burning": "lycanitesmobs:cooked_pinky_meat",
			"minAmount": 1,
			"maxAmount": 3,
			"chance": 1
		}
	],
	"sizeScale": 1,
	"hitboxScale": 1
}