{
  "result": {
    "item": "minecraft:ender_pearl",
    "count": 1
  },
  "ingredients": [
	{
      "item": "lycanitesmobs:equipmentpart_bansheeeye"
    }
  ],
  "type": "minecraft:crafting_shapeless"
}