{
  "result": {
    "item": "lycanitesmobs:brutetreat",
    "count": 4
  },
  "pattern": [
    " MM",
    "BBM",
    " MM"
  ],
  "type": "minecraft:crafting_shaped",
  "key": {
    "B": {
      "item": "minecraft:bone"
    },
    "M": {
      "item": "minecraft:cooked_porkchop"
    }
  }
}