{
  "result": {
    "item": "lycanitesmobs:desertcrystal"
  },
  "ingredients": [
    {
      "item": "minecraft:sandstone",
      "data": 0
    },
    {
      "item": "minecraft:glowstone"
    }
  ],
  "type": "minecraft:crafting_shapeless"
}