{
  "result": {
    "item": "minecraft:spider_eye",
    "count": 1
  },
  "ingredients": [
	{
      "item": "lycanitesmobs:equipmentpart_sutiramustinger"
    }
  ],
  "type": "minecraft:crafting_shapeless"
}