{
	"name": "moss_pie",
	"loadDefault": true,
	"group": "items",
	"maxStackSize": 16,
	"food": {
		"hunger": 10,
		"saturation": 0.8,
		"alwaysEdible": true,
		"fast": false,
		"meat": true,
		"effects": [
			{
				"effectId": "minecraft:regeneration",
				"duration": 10,
				"amplifier": 0,
				"chance": 1.0
			}
		]
	}
}